<?xml version="1.0" encoding="utf-8"?>
<!-- Generator: Adobe Illustrator 22.0.1, SVG Export Plug-In . SVG Version: 6.00 Build 0)  -->
<svg version="1.1" id="Layer_1" xmlns="http://www.w3.org/2000/svg" xmlns:xlink="http://www.w3.org/1999/xlink" x="0px" y="0px"
	 viewBox="0 0 894.2 901.3" style="enable-background:new 0 0 894.2 901.3;" xml:space="preserve">
<style type="text/css">
	.st0{opacity:0.73;}
	.st1{opacity:0.12;}
	.st2{fill:#FFFFFF;}
</style>
<title>Asset 20</title>
<g id="Layer_2_1_" class="st0">
	<g id="Layer_1-2">
		<g class="st1">
			<path class="st2" d="M700.5,523.2l-0.8-0.4L700.5,523.2z"/>
			<path class="st2" d="M690.1,518.3l-0.3-0.2L690.1,518.3z"/>
			<path class="st2" d="M687.8,517.6l-0.3-0.1L687.8,517.6z"/>
			<path class="st2" d="M697.6,521.8l-0.8-0.4L697.6,521.8z"/>
			<path class="st2" d="M695.2,520.7l-1-0.5L695.2,520.7z"/>
			<path class="st2" d="M691.4,518.9l-0.5-0.2L691.4,518.9z"/>
			<path class="st2" d="M693.2,519.7l-0.8-0.4L693.2,519.7z"/>
			<path class="st2" d="M685.7,517.2h-0.2H685.7z"/>
			<path class="st2" d="M679.7,517L679.7,517z"/>
			<path class="st2" d="M406.1,227.3c-1.2,0.9-2.5,1.9-3.7,2.9C403.7,229.2,404.9,228.2,406.1,227.3z"/>
			<path class="st2" d="M683.1,517L683.1,517z"/>
			<path class="st2" d="M584.8,694.7l3.9,0.8L584.8,694.7z"/>
			<path class="st2" d="M396.9,234.6c-0.7,0.6-1.4,1.2-2.1,1.9C395.5,235.9,396.2,235.2,396.9,234.6z"/>
			<path class="st2" d="M672.7,517.8l-0.3,0.1L672.7,517.8z"/>
			<path class="st2" d="M668.4,518.8l-0.2,0.1L668.4,518.8z"/>
			<path class="st2" d="M715.2,530.5l-0.3-0.2L715.2,530.5z"/>
			<path class="st2" d="M707.5,526.7l-0.5-0.3L707.5,526.7z"/>
			<path class="st2" d="M782.3,565.4l-0.5-0.3L782.3,565.4z"/>
			<path class="st2" d="M784.1,566.5l-0.4-0.2L784.1,566.5z"/>
			<path class="st2" d="M811.2,611.9c-0.1-0.6-0.2-1-0.2-1.4C811.1,610.9,811.1,611.3,811.2,611.9z"/>
			<path class="st2" d="M812,616.3c-0.2-0.8-0.3-1.5-0.4-2.2C811.7,614.8,811.8,615.5,812,616.3z"/>
			<path class="st2" d="M812.6,619.2c-0.2-1-0.4-1.9-0.5-2.7C812.2,617.3,812.4,618.2,812.6,619.2z"/>
			<path class="st2" d="M811.5,613.9c-0.1-0.6-0.2-1.2-0.3-1.7C811.3,612.7,811.4,613.2,811.5,613.9z"/>
			<path class="st2" d="M780.2,564.1l-0.4-0.2L780.2,564.1z"/>
			<path class="st2" d="M724.2,534.9l-1-0.5L724.2,534.9z"/>
			<path class="st2" d="M588.7,695.6c4,0.9,8,1.8,11.8,2.7C596.6,697.4,592.7,696.5,588.7,695.6z"/>
			<path class="st2" d="M719.7,532.7l-0.8-0.4L719.7,532.7z"/>
			<path class="st2" d="M728.6,537.1l-0.9-0.5L728.6,537.1z"/>
			<path class="st2" d="M777.6,562.7l-0.3-0.2L777.6,562.7z"/>
			<path class="st2" d="M774.8,561.1L774.8,561.1L774.8,561.1z"/>
			<path class="st2" d="M608.7,700.2l2.5,0.6L608.7,700.2z"/>
			<path class="st2" d="M447.1,800.9l58.6-45.3h-0.5l78.5-60.3l0.9-0.7c-15.9-3.4-31.8-6.5-42.2-8.5L441,797.2l0.5-0.5L447.1,800.9z
				"/>
			<polygon class="st2" points="441,797.2 436.3,792.6 436.3,792.6 			"/>
			<path class="st2" d="M633.8,707.8c0.5,0.2,1,0.5,1.5,0.7C634.8,708.3,634.3,708,633.8,707.8z"/>
			<path class="st2" d="M630,706.3l1.3,0.5L630,706.3z"/>
			<path class="st2" d="M660.4,642.9l-0.5-0.5L660.4,642.9z"/>
			<path class="st2" d="M632,707.1l1.2,0.5L632,707.1z"/>
			<path class="st2" d="M700.4,681.2l-1.5-1.5L700.4,681.2z"/>
			<path class="st2" d="M697.4,678.3l-1.6-1.6L697.4,678.3z"/>
			<path class="st2" d="M712.3,692.7l-0.2-0.2L712.3,692.7z"/>
			<path class="st2" d="M684.4,665.8l-0.1-0.1L684.4,665.8z"/>
			<path class="st2" d="M679.1,660.8l-16.2-15.6C668,650.2,673.6,655.5,679.1,660.8z"/>
			<path class="st2" d="M411.1,223.7c1-0.7,1.9-1.3,2.9-2h-0.1C413,222.4,412,223,411.1,223.7z"/>
			<path class="st2" d="M627.8,705.6l1.4,0.5L627.8,705.6z"/>
			<path class="st2" d="M663.7,606.2l18.3-16.5l-39.8,35.8l14.3,13.7l7.2-5.5V606.2z"/>
			<path class="st2" d="M744.6,669.3c0,0,0,0.1,0.1,0.1C744.7,669.3,744.7,669.3,744.6,669.3z"/>
			<path class="st2" d="M601,698.4l3,0.7L601,698.4z"/>
			<path class="st2" d="M605,699.3l2.6,0.6L605,699.3z"/>
			<path class="st2" d="M612.1,701.1l2.4,0.6L612.1,701.1z"/>
			<path class="st2" d="M625.2,704.7l1.6,0.5L625.2,704.7z"/>
			<path class="st2" d="M622,703.8l2.2,0.7L622,703.8z"/>
			<path class="st2" d="M618.6,702.8l3,0.8L618.6,702.8z"/>
			<path class="st2" d="M615.5,702l2.7,0.7L615.5,702z"/>
			<path class="st2" d="M572.3,131.3c0.6,0.7,1.1,1.4,1.7,2.1c6.6-0.7,13.1-2.5,19-5.4c-18.5-40.7-23.1-75.9-23.1-75.9
				c-26.6,40.8-55.9,50.2-55.9,50.2c15.1,21.5,31.8,29.2,46,31l8.2-6.4L572.3,131.3z"/>
			<path class="st2" d="M380.2,102.3c0,0-29.3-9.4-55.9-50.2c0,0-4.5,35.2-23.1,75.9C301.2,128,345.2,152,380.2,102.3z"/>
			<path class="st2" d="M426.4,214c-2,1.2-4,2.3-6,3.6C422.3,216.3,424.3,215.2,426.4,214z"/>
			<path class="st2" d="M582.3,162.6c-0.7,11.2-10.4,25.2-16.3,32.7l68.4,44.7l12.8-41.4l44.4-143.1c0,0-58.8,74.8-112.3,87.9
				C581.7,149.5,582.7,156.1,582.3,162.6z"/>
			<path class="st2" d="M414,221.7c0.6-0.4,1.2-0.9,1.8-1.2c-0.6,0.4-1.3,0.8-1.9,1.2H414z"/>
			<path class="st2" d="M440.1,206.7c-3.4,1.6-6.8,3.4-10.1,5.2C433.3,210.1,436.7,208.4,440.1,206.7z"/>
			<path class="st2" d="M519.5,165l-1.1,0.9l29.6-23.1C489.6,122.9,447.1,0,447.1,0s-45,129.9-105.9,144.2
				c-58.3,13.6-138.7-88.6-138.7-88.6l44.4,143.1c0,0,7.2,23.2,12.8,41.4l187.3-122.5L519.5,165z"/>
			<path class="st2" d="M565.8,195.5l42.6,40l0.5,1c6.8,13.1,15.3,28.6,17.2,30.9c3.1,3.2,30,30.5,40.6,39.8
				c10.8,9.5,16.7,17.5,20.8,28.8s-4.3,30-6,33.6l-1.7,3.4l-16.1,1.4v145.9c1.5-0.6,3-1,4.4-1.4l0.2-0.1c1.4-0.4,2.7-0.7,4-1
				l0.3-0.1c2.3-0.4,4.6-0.7,7-0.8h0.3c1,0,2,0,2.9,0h0.2c0.8,0,1.6,0.1,2.3,0.2h0.2c0.7,0.1,1.3,0.2,1.8,0.3l0.3,0.1
				c0.5,0.1,0.9,0.2,1.3,0.4l0.6,0.2l0.3,0.2l0.7,0.3l0.5,0.2l1,0.5l0.8,0.4l1.1,0.5l1,0.5l1.6,0.8l0.8,0.4l2.1,1l0.8,0.4l6.4,3.1
				l0.5,0.3l7.5,3.7l0.3,0.2l3.8,1.9l0.8,0.4l3.5,1.7l1,0.5l3.5,1.7l0.9,0.5c4.5,2.2,9.1,4.6,13.7,6.9V310.6l-107.9-70.5L566,195.4
				L565.8,195.5z"/>
			<path class="st2" d="M774.8,561.1l2.6,1.4l0.3,0.2c0.8,0.4,1.5,0.8,2.1,1.2l0.4,0.2l1.7,1l0.5,0.3c0.5,0.3,1,0.6,1.4,0.9l0.4,0.2
				c0.5,0.3,1,0.7,1.4,1c14.2,10,24.5,33.5,25.5,43c0,0.4,0.1,0.8,0.2,1.4c0,0.1,0,0.2,0,0.3c0.1,0.5,0.2,1.1,0.3,1.7
				c0,0.1,0,0.2,0,0.2c0.1,0.7,0.3,1.4,0.4,2.2v0.2c0.2,0.8,0.3,1.8,0.5,2.7l0,0l81.6-63L817.4,515l-52.6,40.6
				C768.4,557.6,771.8,559.4,774.8,561.1L774.8,561.1z"/>
			<path class="st2" d="M744.6,669.3l-0.5-0.9l-1.8-3.5l13.2-20.4c-1.6-4.1-4-10.7-4.3-15c-0.2-3.9,0-7.9,0.4-11.8l-69.5-28
				l-18.3,16.5v27.4l-7.2,5.5l3.4,3.2l0.5,0.5l2.4,2.3l16.2,15.6l5.2,5l0.1,0.1l11.3,10.9l1.6,1.6l1.5,1.4l1.5,1.5
				c4.5,4.3,8.5,8.1,11.7,11.2l0.2,0.2l2.2,2.2l31-23.9l-0.1-0.1c-0.3-0.6-0.6-1.1-0.8-1.5C744.7,669.4,744.7,669.3,744.6,669.3z"/>
			<path class="st2" d="M635.2,708.5c-0.4-0.2-0.9-0.5-1.5-0.7l-0.6-0.2l-1.2-0.5l-0.7-0.3l-1.3-0.5l-0.8-0.3l-1.4-0.5l-1-0.3
				l-1.6-0.5l-0.9-0.3l-2.2-0.7l-0.5-0.1l-3-0.8l-0.4-0.1l-2.7-0.7l-1-0.3l-2.4-0.6l-1-0.3l-2.5-0.6l-1-0.2l-2.6-0.6l-1-0.2l-3-0.7
				l-0.6-0.1c-3.8-0.9-7.8-1.8-11.8-2.7l0,0l-3.9-0.8h-0.2l-0.9,0.7l-78.5,60.3h0.5L447,800.9l-5.5-4.3l-0.5,0.5l-4.8-4.5l0,0
				l-169.6-131l-0.6,0.6l-4.7-4.7l-31-23.9V353.8l143.2-96.3l0,0c6.6-7.5,13.6-14.5,21.1-21c0.7-0.6,1.4-1.3,2.1-1.9
				c1.8-1.5,3.6-3,5.5-4.4c1.2-1,2.5-1.9,3.7-2.9c1.6-1.2,3.3-2.4,5-3.6c0.9-0.7,1.9-1.3,2.8-2c0.6-0.4,1.3-0.8,1.9-1.2
				c1.5-1,3-2,4.5-2.9c2-1.2,4-2.4,6-3.6c1.2-0.7,2.4-1.4,3.6-2.1c3.3-1.8,6.7-3.6,10.1-5.2c0.9-0.4,1.6-0.7,2.1-1
				c4.3-2.2,10.7-8.8,17-15.2c6.7-6.9,13.5-13.9,20-18.1c11.6-7.4,31.8-7,39.2-6.6l1.1-0.9l-72.5-47.4L259.7,240.1l-107.8,70.5V573
				l-75.1-58L0,556.2l447.1,345.1l216-166.7l1.5-4.6C659.3,725,647.4,714.7,635.2,708.5z"/>
			<polygon class="st2" points="261.4,657.5 261.4,657.5 261.4,657.5 			"/>
			<path class="st2" d="M436.3,792.6L436.3,792.6l-4.8-4.5l106.2-116.2l3.5,0.6c8.3,1.5,82.1,15,99.9,24.1
				c18.2,9.3,34.9,26,35.6,26.7l2.9,2.9l-31.1,94.3l-5.4-0.8c-8.1-1.2-17.8-2.4-22.4-2.6c-0.9,2-2.2,5-3.2,7.5l-1.2,3l-24,6.8
				c-3.2,10-4.1,20.7-2.4,31.1c1,6.4,2.4,12.8,4.3,19l29.8-25.6l1.6-0.3c18.4-4.2,46.3-12.5,52.5-18.5c2.5-5.7,12.1-39.9,18.5-62.7
				c6.8-24.4,11.1-39.5,12.7-43.4c3-7.4,3-21.9,1.1-24.8c-3.1-3.1-55.1-52.9-82.2-78.8l-5.2-5l56.5-50.9l86.3,34.7l-0.7,5.1
				c-0.3,2.7-1.2,10.5-0.9,14.2c0.2,2.8,2.9,10.1,4.7,14.1l1.5,3.3l-12.8,19.8c3.9,7.1,10,16.7,14.1,20.1s10.7,8.6,15.5,12.4
				l14.1-35.5l6.9-3.5c-2.9-12.2-9.5-40.4-10.2-47.4s-9.8-26.2-19.9-33.4c-11-7.8-87.5-45.5-93.3-47.9c0.1,0.1-1.2-0.2-3.3-0.2
				c-4.1,0-11.7,0.9-20.8,6.2c-15,8.7-51.2,25-52.7,25.7l-9.1,4.1V556c0-0.9-1.5-91.9-93.4-199.5l-13.8-16.1l20.3,5.3
				c2.5,0.7,4.9,1.4,7.2,2c10,2.9,15,4.1,20.7,1.5c9.7-4.4,28.2-13.7,28.3-13.8l2.7-1.4l36.5,15.9l1,1.5c8.1,11.2,19,24.3,22.3,26
				c3.1,1.1,11.7-0.5,14.4-2c2.3-3.7,7.7-10.2,8.9-11.6l1.7-2.1l15.6-1.4c3.1-7.5,5.3-16.4,4.1-19.7c-2.8-7.7-6.7-14.2-17.1-23.4
				c-11.1-9.7-38-37.1-41.5-40.6c-3.2-3.3-13-21.6-18.9-32.9l-50.3-47.2l4.3-4.9c6.4-7.3,16.8-21.9,17.3-29.9
				c0.4-5.6-0.8-11.3-3.3-16.3l-43.6,34.1l-2.5-0.2c-6.5-0.6-25.4-1-33.7,4.4c-5.2,3.4-11.6,9.9-17.7,16.2
				c-7.3,7.5-14.2,14.6-20.4,17.8c-0.6,0.3-1.4,0.7-2.4,1.2C375.2,252.1,341.7,322.3,326,375.3c-28.4,96.2-11,152.3-2.4,171.7
				l78.4-89.8l-3.5,22.5c-0.2,1.1-4.2,26.5-10.5,41.5c-9.7,23.2-107.8,126.2-121.4,140.5L436.3,792.6L436.3,792.6z"/>
		</g>
	</g>
</g>
</svg>
